Strikeout Home/Away Effects
…
Do an exploratory plot. Here I compute the logits of the estimated probabilities of strikeout for home and away games. Graph the mean logit against the (HOME - AWAY) difference. On average, one would expect batters to do better at home games, so the mean logit difference is negative.

S1 <- inner_join(filter(S, BAT_HOME_ID==0),
                 filter(S, BAT_HOME_ID==1),
                 by="BAT_ID")
S1 <- mutate(S1,
             logit.x=log(y.x / z.x),
             logit.y=log(y.y / z.y))
S1

## # A tibble: 245 x 11
## # Groups:   BAT_ID [245]
##      BAT_ID BAT_HOME_ID.x   N.x   y.x   z.x BAT_HOME_ID.y   N.y   y.y
##      <fctr>         <int> <int> <int> <int>         <int> <int> <int>
##  1 abrej003             0   329    69   260             1   295    56
##  2 alony001             0   266    41   225             1   216    33
##  3 altuj001             0   319    32   287             1   321    38
##  4 alvap001             0   143    47    96             1   194    50
##  5 andet001             0   194    62   132             1   216    55
##  6 andre001             0   261    42   219             1   245    28
##  7 aokin001             0   232    25   207             1   185    20
##  8 arenn001             0   307    55   252             1   311    48
##  9 aybae001             0   205    41   164             1   210    29
## 10 baezj001             0   218    57   161             1   203    51
## # ... with 235 more rows, and 3 more variables: z.y <int>, logit.x <dbl>,
## #   logit.y <dbl>
…
